time,attentionValue,meditationValue
0,47,53
1,51,64
2,51,64
3,48,44
4,47,51
5,44,66
6,40,48
7,47,80
8,41,75
9,41,75
10,41,75
11,35,56
12,34,57
13,21,27
14,23,21
15,26,29
16,40,48
17,37,40
18,43,48
19,40,56
20,29,35
21,35,41
22,34,51
23,50,47
24,60,50
25,66,70
26,74,66
27,60,77
28,66,80
29,66,77
30,67,66
31,77,57
32,74,74
33,77,63
34,69,63
35,70,77
36,74,57
37,53,64
38,43,56
39,43,51
40,37,51
41,51,53
42,54,74
43,43,66
44,48,66
45,50,67
46,54,67
47,66,67
48,51,80
49,40,90
50,40,93
51,24,75
52,37,66
53,37,50
54,29,29
55,29,50
56,34,43
57,30,35
58,41,51
59,38,47
60,37,61
61,41,60
62,27,67
63,34,57
64,29,61
65,27,69
66,40,48
67,38,53
68,30,44
69,41,48
70,38,56
71,43,61
72,43,66
73,29,63
74,29,67
75,24,84
76,23,81
77,30,80
78,41,84
79,44,67
80,40,57
81,37,63
82,26,38
83,37,37
84,60,43
85,50,41
86,50,40
87,41,38
88,34,47
89,51,48
90,54,61
91,56,44
92,69,30
93,69,23
94,78,38
95,80,48
96,75,61
97,75,69
98,69,70
99,70,61
100,51,43
101,50,50
102,56,41
103,60,60
104,84,75
105,75,63
106,60,63
107,47,38
108,26,24
109,48,30
110,50,37
111,53,50
112,48,51
113,21,47
114,14,47
115,7,60
116,10,57
117,13,61
118,20,69
119,20,63
120,21,75
121,27,74
122,11,51
123,17,56
124,11,54
125,8,50
126,21,57
127,14,53
128,21,48
129,23,61
130,24,47
131,24,53
132,30,51
133,35,43
134,37,44
135,37,44
136,37,44
137,40,56
138,38,74
139,41,75
140,48,100
141,57,90
142,64,90
143,54,83
144,48,69
145,26,70
146,20,51
147,13,38
148,29,26
149,43,3
150,37,10
151,50,37
152,43,54
153,51,83
154,57,87
155,57,91
156,57,93
157,57,87
158,51,100
159,48,83
160,40,78
161,47,77
162,56,63
163,61,57
164,67,60
165,61,67
166,63,56
167,64,57
168,60,47
169,44,30
170,40,29
171,35,37
172,26,27
173,24,29
174,24,29
175,24,29
176,24,29
177,24,29
178,24,29
179,24,29
180,0,0
181,0,0
182,0,0
183,0,0
184,0,0
185,0,0
186,0,0
187,0,0
188,0,0
189,0,0
190,24,26
191,11,16
192,14,17
193,7,20
194,7,20
195,17,21
196,17,21
197,17,21
198,17,21
199,17,21
200,20,23
201,11,40
202,38,30
203,34,47
204,66,51
205,96,53
206,96,63
207,100,60
208,78,70
209,57,56
210,44,51
211,20,38
212,17,44
213,14,57
214,14,57
215,14,57
216,14,57
217,14,57
218,14,57
219,11,66
220,37,64
221,41,48
222,60,35
223,88,29
224,77,47
225,64,54
226,44,63
227,27,60
228,13,47
229,27,41
230,27,38
231,21,38
232,24,56
233,21,60
234,14,61
235,17,64
236,44,54
237,43,44
238,57,60
239,69,64
240,57,80
241,48,66
242,26,35
243,3,29
244,1,8
245,1,27
246,1,27
247,1,27
248,1,41
249,10,44
250,27,56
251,23,53
252,54,53
253,54,35
254,54,35
255,54,35
256,54,35
257,54,35
258,47,24
259,64,34
260,60,44
261,48,66
262,47,61
263,37,47
264,29,34
265,47,11
266,44,16
267,47,11
268,43,14
269,51,41
270,51,41
271,63,48
272,56,44
273,51,40
274,38,24
275,13,21
276,34,38
277,38,43
278,41,47
279,44,43
280,34,48
281,34,48
282,35,67
283,35,69